Praktikum 6 Anreg
…
dt

## # A tibble: 448 × 6
##    Price   EPS    DY    PS    PB Low52
##    <dbl> <dbl> <dbl> <dbl> <dbl> <dbl>
##  1 223.   7.92 2.33   4.39 11.3  260. 
##  2  60.2  1.7  1.15   3.58  6.35  68.4
##  3  56.3  0.26 1.91   3.74  3.19  64.6
##  4 108.   3.29 2.50   6.29 26.1  126. 
##  5 151.   5.44 1.71   2.60 10.6  163. 
##  6  65.8  1.28 0.432 10.6   5.16  74.9
##  7 145.   7.43 0.351  1.80  3.55 225. 
##  8 185.   3.39 0     13.1  11.1  204. 
##  9 110.   6.19 0.218  1.13  2.51 170. 
## 10  11.2  0.03 0      2.11 21.5   15.6
## # ℹ 438 more rows
…
